289383 930886 525
692777 636915 442
747793 238335 509
885386 760492 525
516649 641421 509
202362 490027 449
368690 520059 470
897763 513926 525
180540 383426 443
89172 455736 449
5211 595368 470
702567 956429 525
465782 21530 449
722862 665123 504
174067 703135 509
513929 979802 525
634022 723058 504
133069 898167 525
961393 18456 525
175011 478042 449
176229 377373 443
484421 544919 470
413784 898537 525
575198 594324 434
798315 664370 504
566413 803526 509
776091 268980 509
759956 241873 509
806862 999170 525
906996 497281 525
702305 420925 509
477084 336327 449
660336 126505 509
750846 621729 509
661313 925857 525
616124 353895 470
819582 100545 509
898814 233367 525
515434 990364 525
344043 313750 384
171087 426808 449
117276 947178 525
695788 393584 509
705403 502651 509
392754 612399 470
999932 95060 525
549676 993368 525
947739 210012 525
636226 698586 442
348094 297539 441
140795 480570 449
651434 960378 525
97467 66601 351
710097 612902 509
573317 570492 372
926652 260756 525
997301 560280 525
724286 209441 509
953865 429689 525
228444 346619 443
558440 744729 509
958031 108117 525
738097 905771 525
834481 890675 525
120709 698927 509
704567 777856 504
179497 872353 525
254586 276965 407
455306 964683 525
406219 28624 443
51528 332871 443
805732 48829 509
409503 530019 470
258270 363368 441
959708 486715 525
226340 518149 470
747796 700723 504
142618 2245 375
122846 493451 449
892921 243555 525
192379 597488 470
537764 888228 525
469841 792350 509
165193 441500 449
757034 87764 509
470124 324914 449
936987 275856 525
373743 346491 410
322227 148365 443
709859 281936 509
151432 452551 449
316437 899228 525
153275 975407 525
901474 276121 525
468858 794395 509
36029 661237 509
908235 573793 525
65818 894428 525
366143 231011 441
335928 639529 509
318776 322404 371
964443 255763 525
114613 854538 525
118606 436840 449
2904 344818 443
235128 670688 509
797369 67917 509
569917 466996 470
43324 987743 525
259470 512183 470
298490 295499 327
689772 206725 509
385644 755590 509
617505 268139 470
502954 469786 426
907669 338082 525
308542 388464 441
110197 939507 525
759355 228804 509
376348 278611 441
573622 127828 470
949299 887343 507
195746 35568 383
354340 755422 509
23311 613810 470
267605 321801 407
425661 473730 444
44878 811305 509
229320 178736 386
79444 248626 443
648522 503465 509
586708 473416 470
408282 213258 443
412924 167637 449
442062 305624 449
962600 532036 525
433452 911899 525
419379 145550 449
947468 290071 525
900973 487131 525
903881 684930 525
808933 845894 525
158660 370163 443
657199 387981 509
548899 252996 470
152959 713773 509
272813 739668 509
187190 681095 509
952926 116466 525
365084 911340 525
422090 327684 449
443376 855542 525
755936 379107 509
517445 219756 470
669179 418418 509
706887 89412 509
103348 32172 351
451659 262009 449
402336 625210 470
166342 467587 449
878206 319301 525
697713 667372 442
575321 401255 470
864819 44599 525
517721 229904 470
955939 939811 414
73940 915667 525
311705 346228 441
811127 829150 450
565984 996658 525
763920 789224 468
602422 867269 525
821396 54081 509
645630 740084 504
679292 811972 504
207672 73850 383
647625 905385 525
741222 739299 393
306640 606042 470
783898 340713 509
352298 256190 441
280524 942590 525
688209 108581 509
288819 499336 449
937732 371155 525
495994 218004 449
160379 614769 470
85273 981776 525
668850 247255 509
721860 348142 509
575579 445884 470
421993 223205 449
867621 679567 525
962504 690613 525
801961 262754 509
31326 154259 375
518944 828202 509
613202 723506 509
936784 902021 476
222842 390868 443
789528 235189 509
608872 949908 525
849958 210498 525
448036 518808 470
457753 686248 509
383303 33333 443
132133 321648 443
772890 999754 525
517567 251746 470
690368 319529 509
514500 238046 470
473788 549797 470
66249 86990 351
273303 3033 443
505363 12497 449
910253 294892 525
247686 519125 470
761152 613996 509
245975 209188 443
649157 703729 442
895436 32460 525
253414 543921 470
870460 26304 525
60028 388027 443
278050 266748 407
707556 308902 509
504794 697697 509
858699 571043 525
301039 132002 443
90428 806403 509
144500 681 375
617647 908538 525
36159 895151 525
522535 282134 470
104339 171692 383
502215 516127 470
720504 755629 424
60049 590964 470
298285 636429 509
495343 576335 470
903177 202900 525
885238 407971 525
416949 260289 449
495367 717988 509
392292 585795 470
40743 53144 340
102829 658390 509
961682 655340 525
553541 569 470
453826 174232 449
